G04*
G04 #@! TF.GenerationSoftware,Altium Limited,Altium Designer,18.0.9 (584)*
G04*
G04 Layer_Physical_Order=2*
G04 Layer_Color=16711680*
%FSLAX42Y42*%
%MOMM*%
G71*
G01*
G75*
%ADD10C,0.50*%
%ADD77C,0.60*%
%ADD78C,0.30*%
%ADD79C,0.40*%
%ADD80O,2.00X1.90*%
%ADD81R,2.00X1.90*%
%ADD82O,1.90X2.00*%
%ADD83R,1.90X2.00*%
%ADD84O,1.60X2.00*%
%ADD85R,1.60X2.00*%
%ADD86C,1.70*%
%ADD87R,1.70X1.70*%
%ADD88R,2.00X1.60*%
%ADD89O,2.00X1.60*%
%ADD90C,3.20*%
%ADD91C,7.40*%
%ADD92C,4.00*%
G04:AMPARAMS|DCode=93|XSize=2mm|YSize=1.2mm|CornerRadius=0.3mm|HoleSize=0mm|Usage=FLASHONLY|Rotation=0.000|XOffset=0mm|YOffset=0mm|HoleType=Round|Shape=RoundedRectangle|*
%AMROUNDEDRECTD93*
21,1,2.00,0.60,0,0,0.0*
21,1,1.40,1.20,0,0,0.0*
1,1,0.60,0.70,-0.30*
1,1,0.60,-0.70,-0.30*
1,1,0.60,-0.70,0.30*
1,1,0.60,0.70,0.30*
%
%ADD93ROUNDEDRECTD93*%
%ADD94C,0.60*%
G36*
X1250Y5120D02*
X980Y4850D01*
X765D01*
X763Y4863D01*
X767Y4863D01*
X787Y4877D01*
X1139Y5229D01*
X1250D01*
Y5120D01*
D02*
G37*
G36*
X1006Y5268D02*
X701Y4963D01*
X687Y4943D01*
X683Y4920D01*
X687Y4897D01*
X701Y4877D01*
X721Y4863D01*
X725Y4863D01*
X723Y4850D01*
X596D01*
X590Y4861D01*
X590Y4862D01*
X602Y4890D01*
X606Y4920D01*
X602Y4950D01*
X590Y4978D01*
X572Y5002D01*
X548Y5020D01*
X520Y5032D01*
X490Y5036D01*
X460Y5032D01*
X432Y5020D01*
X408Y5002D01*
X390Y4978D01*
X378Y4950D01*
X374Y4920D01*
X378Y4890D01*
X390Y4862D01*
X408Y4838D01*
X432Y4820D01*
X460Y4808D01*
X490Y4804D01*
X520Y4808D01*
X548Y4820D01*
X559Y4828D01*
X570Y4822D01*
Y4764D01*
X559Y4758D01*
X548Y4766D01*
X520Y4778D01*
X490Y4782D01*
X460Y4778D01*
X432Y4766D01*
X408Y4748D01*
X390Y4724D01*
X378Y4696D01*
X374Y4666D01*
X378Y4636D01*
X390Y4608D01*
X408Y4584D01*
X432Y4566D01*
X460Y4554D01*
X490Y4550D01*
X520Y4554D01*
X548Y4566D01*
X559Y4574D01*
X570Y4568D01*
Y4540D01*
X901Y4209D01*
X718Y4026D01*
X707Y4010D01*
X703Y3990D01*
X707Y3970D01*
X718Y3954D01*
X734Y3943D01*
X754Y3939D01*
X774Y3943D01*
X790Y3954D01*
X973Y4137D01*
X1000Y4110D01*
X1220D01*
X1220Y3230D01*
X1229D01*
X1236Y3217D01*
X1233Y3213D01*
X1229Y3190D01*
X1233Y3167D01*
X1247Y3147D01*
X1267Y3133D01*
X1290Y3129D01*
X1313Y3133D01*
X1333Y3147D01*
X1347Y3167D01*
X1351Y3190D01*
X1347Y3213D01*
X1344Y3217D01*
X1351Y3230D01*
X1414D01*
Y2899D01*
X1305Y2790D01*
X1287Y2787D01*
X1267Y2773D01*
X1253Y2753D01*
X1249Y2730D01*
X1253Y2707D01*
X1267Y2687D01*
X1287Y2673D01*
X1310Y2669D01*
X1333Y2673D01*
X1353Y2687D01*
X1367Y2707D01*
X1370Y2725D01*
X1492Y2848D01*
X1502Y2862D01*
X1506Y2880D01*
Y3230D01*
X1610D01*
Y2381D01*
X1597Y2379D01*
X1597Y2383D01*
X1583Y2403D01*
X1563Y2417D01*
X1540Y2421D01*
X1517Y2417D01*
X1497Y2403D01*
X1483Y2383D01*
X1479Y2360D01*
Y2280D01*
X1483Y2257D01*
X1497Y2237D01*
X1583Y2151D01*
X1576Y2140D01*
X1150Y2260D01*
X440D01*
Y2040D01*
X540Y1940D01*
Y1760D01*
X570D01*
X639Y1691D01*
Y1480D01*
X642Y1468D01*
X648Y1458D01*
X648Y1458D01*
X650Y1457D01*
Y1420D01*
X660D01*
X739Y1341D01*
Y1093D01*
X738Y1092D01*
X732Y1082D01*
X729Y1070D01*
X729Y1070D01*
Y950D01*
X732Y938D01*
X738Y928D01*
X748Y922D01*
X760Y919D01*
Y670D01*
X741Y651D01*
X230Y651D01*
X227Y650D01*
X180D01*
Y620D01*
X52Y492D01*
X40Y497D01*
Y2406D01*
X50Y2410D01*
X510D01*
Y2448D01*
X512Y2450D01*
X512Y2451D01*
X513Y2451D01*
X515Y2456D01*
X518Y2460D01*
X518Y2461D01*
X518Y2461D01*
X519Y2467D01*
X520Y2472D01*
X520Y2473D01*
X520Y2473D01*
X510Y2584D01*
Y2680D01*
X580Y2750D01*
X551Y2779D01*
Y2830D01*
X550Y2833D01*
Y2890D01*
X450D01*
X440Y2880D01*
X370Y2950D01*
X363D01*
X362Y2952D01*
X352Y2958D01*
X340Y2961D01*
X340Y2961D01*
X296D01*
X293Y2960D01*
X287D01*
X285Y2961D01*
X279Y2962D01*
X276Y2964D01*
X264Y2976D01*
X262Y2979D01*
X261Y2985D01*
X260Y2988D01*
X259Y2991D01*
X258Y2993D01*
X256Y2996D01*
X254Y2998D01*
X253Y3001D01*
X234Y3019D01*
X241Y3030D01*
X263Y3021D01*
X293Y3017D01*
X323Y3021D01*
X351Y3033D01*
X375Y3051D01*
X393Y3075D01*
X405Y3103D01*
X409Y3133D01*
X405Y3163D01*
X393Y3191D01*
X375Y3215D01*
X371Y3218D01*
X351Y3233D01*
X323Y3245D01*
X293Y3249D01*
X263Y3245D01*
X250Y3240D01*
X221Y3269D01*
Y3270D01*
X218Y3282D01*
X216Y3285D01*
X225Y3294D01*
X235Y3287D01*
X263Y3275D01*
X293Y3271D01*
X323Y3275D01*
X351Y3287D01*
X375Y3305D01*
X393Y3329D01*
X405Y3357D01*
X409Y3387D01*
X405Y3417D01*
X393Y3445D01*
X375Y3469D01*
X351Y3487D01*
X323Y3499D01*
X293Y3503D01*
X263Y3499D01*
X235Y3487D01*
X211Y3469D01*
X193Y3445D01*
X181Y3417D01*
X177Y3387D01*
X181Y3357D01*
X193Y3329D01*
X208Y3309D01*
X204Y3303D01*
X200Y3299D01*
X190Y3301D01*
X30D01*
X30Y3301D01*
Y5280D01*
X1001D01*
X1006Y5268D01*
D02*
G37*
G36*
X190Y3185D02*
X181Y3163D01*
X177Y3133D01*
X181Y3103D01*
X190Y3081D01*
Y3020D01*
X231Y2979D01*
X233Y2967D01*
X247Y2947D01*
X267Y2933D01*
X279Y2931D01*
X280Y2930D01*
X284D01*
X290Y2929D01*
X296Y2930D01*
X340D01*
X440Y2830D01*
X520D01*
Y2760D01*
X468Y2708D01*
X489Y2471D01*
X481Y2461D01*
X20D01*
X20Y3260D01*
X30Y3270D01*
X190D01*
Y3185D01*
D02*
G37*
G36*
X5877Y4093D02*
X5880Y4093D01*
Y3930D01*
X5690Y3740D01*
X5700Y3730D01*
Y3689D01*
X5687Y3677D01*
X5675Y3658D01*
X5671Y3637D01*
Y2310D01*
X5675Y2289D01*
X5681Y2280D01*
Y2131D01*
X5669Y2127D01*
X5666Y2130D01*
X5643Y2148D01*
X5617Y2159D01*
X5588Y2163D01*
X5559Y2159D01*
X5533Y2148D01*
X5510Y2130D01*
X5492Y2107D01*
X5481Y2081D01*
X5477Y2052D01*
Y2012D01*
X5481Y1983D01*
X5483Y1979D01*
X5492Y1957D01*
X5510Y1934D01*
X5533Y1916D01*
X5559Y1905D01*
X5588Y1901D01*
X5617Y1905D01*
X5643Y1916D01*
X5666Y1934D01*
X5669Y1937D01*
X5681Y1933D01*
Y1895D01*
X5673Y1883D01*
X5669Y1860D01*
X5673Y1837D01*
X5687Y1817D01*
X5707Y1803D01*
X5730Y1799D01*
X5753Y1803D01*
X5773Y1817D01*
X5787Y1837D01*
X5791Y1860D01*
X5787Y1883D01*
X5775Y1900D01*
X5776Y1908D01*
X5780Y1911D01*
X5789Y1915D01*
X5790Y1915D01*
X5813Y1905D01*
X5842Y1901D01*
X5871Y1905D01*
X5897Y1916D01*
X5920Y1934D01*
X5938Y1957D01*
X5949Y1983D01*
X5953Y2012D01*
Y2052D01*
X5949Y2081D01*
X5938Y2107D01*
X5920Y2130D01*
X5897Y2148D01*
X5871Y2159D01*
X5842Y2163D01*
X5813Y2159D01*
X5787Y2148D01*
X5784Y2146D01*
X5773Y2152D01*
Y2280D01*
X5779Y2289D01*
X5783Y2310D01*
Y3614D01*
X5992Y3823D01*
X6004Y3818D01*
Y3269D01*
X6008Y3251D01*
X6018Y3236D01*
X6157Y3097D01*
X6158Y3092D01*
X6168Y3078D01*
X6244Y3001D01*
Y1789D01*
X6175Y1720D01*
X5470D01*
Y1730D01*
X2905D01*
X2822Y1812D01*
Y1905D01*
X2823Y1905D01*
X2849Y1916D01*
X2872Y1934D01*
X2890Y1957D01*
X2901Y1983D01*
X2905Y2012D01*
Y2052D01*
X2901Y2081D01*
X2890Y2107D01*
X2872Y2130D01*
X2849Y2148D01*
X2823Y2159D01*
X2822Y2159D01*
Y4098D01*
X2827Y4100D01*
X5867D01*
X5877Y4093D01*
D02*
G37*
G36*
X6830Y2740D02*
X6595D01*
Y2480D01*
X6830D01*
Y1530D01*
X6780Y1480D01*
X6550Y1710D01*
X6553Y1723D01*
X6554Y1724D01*
X6573Y1737D01*
X6587Y1757D01*
X6591Y1780D01*
X6587Y1803D01*
X6576Y1819D01*
Y1990D01*
X6572Y2008D01*
X6562Y2022D01*
X6476Y2109D01*
Y3040D01*
X6472Y3058D01*
X6462Y3072D01*
X6236Y3299D01*
Y3821D01*
X6302Y3888D01*
X6312Y3902D01*
X6316Y3920D01*
Y4040D01*
X6830D01*
Y2740D01*
D02*
G37*
G36*
X680Y2090D02*
X900Y980D01*
X870Y950D01*
X760D01*
Y1070D01*
X770Y1080D01*
Y1380D01*
X670Y1480D01*
Y1730D01*
X580Y1820D01*
Y1990D01*
X510Y2060D01*
X510Y2168D01*
X521Y2174D01*
X680Y2090D01*
D02*
G37*
G36*
X2690Y1710D02*
Y1326D01*
X2687Y1319D01*
X2683Y1290D01*
Y1250D01*
X2687Y1221D01*
X2690Y1214D01*
Y1150D01*
X2720Y1120D01*
Y920D01*
X2640D01*
X2570Y990D01*
X2550D01*
Y1244D01*
X2551Y1250D01*
X2550Y1256D01*
Y1400D01*
X2570Y1420D01*
X2560Y1430D01*
X1766D01*
X1760Y1431D01*
X1754Y1430D01*
X1720D01*
X1690Y1400D01*
X1620D01*
X1510Y1290D01*
Y1073D01*
X1508Y1072D01*
X1502Y1062D01*
X1499Y1050D01*
X1499Y761D01*
X1310Y761D01*
X1301Y773D01*
Y1010D01*
X1298Y1022D01*
X1292Y1032D01*
X1290Y1033D01*
Y1447D01*
X1290Y1460D01*
X1530Y1700D01*
Y1729D01*
X1783D01*
X1789Y1730D01*
X2670D01*
X2690Y1710D01*
D02*
G37*
G36*
X6220Y876D02*
X6208Y825D01*
X6203Y762D01*
X6208Y699D01*
X6217Y660D01*
X6206Y650D01*
X4860D01*
Y1110D01*
X4853Y1117D01*
X4857Y1130D01*
X6220D01*
Y876D01*
D02*
G37*
G36*
X1570Y1010D02*
X1770D01*
Y880D01*
X1904Y746D01*
X1916Y717D01*
X1936Y691D01*
X1962Y671D01*
X1991Y659D01*
X2090Y560D01*
X2577D01*
X2580Y559D01*
X2582Y558D01*
X2700Y440D01*
X2713D01*
X2713Y440D01*
X2713Y440D01*
X3649D01*
X3660Y437D01*
X3660D01*
Y351D01*
X3660Y351D01*
X3660Y351D01*
Y313D01*
X3659Y310D01*
X3659Y310D01*
Y169D01*
X3640Y150D01*
X3630Y160D01*
X3460D01*
Y380D01*
X3430Y410D01*
X2170D01*
Y430D01*
X1810Y790D01*
X1554D01*
X1550Y800D01*
Y1010D01*
X1560Y1020D01*
X1570Y1010D01*
D02*
G37*
G36*
X1270Y1000D02*
D01*
Y768D01*
X1270Y768D01*
Y730D01*
X1770Y730D01*
X2160Y340D01*
X2611D01*
X2620Y331D01*
X2620Y170D01*
X2670Y120D01*
X3637Y120D01*
X3640Y119D01*
X3643Y120D01*
X3690D01*
Y169D01*
Y169D01*
Y310D01*
D01*
Y310D01*
X3691Y313D01*
Y351D01*
X3710Y370D01*
X3940D01*
Y50D01*
X3920Y30D01*
X2579D01*
X2576Y43D01*
X2594Y67D01*
X2607Y97D01*
X2611Y130D01*
X2607Y163D01*
X2594Y193D01*
X2574Y219D01*
X2548Y239D01*
X2518Y252D01*
X2485Y256D01*
X2475D01*
X2442Y252D01*
X2412Y239D01*
X2386Y219D01*
X2366Y193D01*
X2353Y163D01*
X2349Y130D01*
X2353Y97D01*
X2366Y67D01*
X2384Y43D01*
X2381Y30D01*
X2129D01*
X2126Y43D01*
X2144Y67D01*
X2157Y97D01*
X2161Y130D01*
X2157Y163D01*
X2144Y193D01*
X2124Y219D01*
X2098Y239D01*
X2068Y252D01*
X2035Y256D01*
X2025D01*
X1992Y252D01*
X1962Y239D01*
X1936Y219D01*
X1916Y193D01*
X1903Y163D01*
X1899Y130D01*
X1903Y97D01*
X1916Y67D01*
X1934Y43D01*
X1931Y30D01*
X1742D01*
X1736Y41D01*
X1755Y72D01*
X1779Y130D01*
X1793Y191D01*
X1798Y254D01*
X1793Y317D01*
X1779Y378D01*
X1755Y436D01*
X1722Y490D01*
X1681Y538D01*
X1633Y579D01*
X1579Y612D01*
X1521Y636D01*
X1460Y650D01*
X1397Y655D01*
X1334Y650D01*
X1273Y636D01*
X1215Y612D01*
X1161Y579D01*
X1113Y538D01*
X1072Y490D01*
X1039Y436D01*
X1015Y378D01*
X1001Y317D01*
X996Y254D01*
X1001Y191D01*
X1015Y130D01*
X1039Y72D01*
X1058Y41D01*
X1052Y30D01*
X30D01*
Y420D01*
X230Y620D01*
X1060Y620D01*
Y765D01*
X1045D01*
Y985D01*
X1060Y1000D01*
X1060D01*
Y1010D01*
X1270D01*
Y1000D01*
D02*
G37*
%LPC*%
G36*
X236Y5036D02*
X206Y5032D01*
X178Y5020D01*
X154Y5002D01*
X136Y4978D01*
X124Y4950D01*
X120Y4920D01*
X124Y4890D01*
X136Y4862D01*
X154Y4838D01*
X178Y4820D01*
X206Y4808D01*
X236Y4804D01*
X266Y4808D01*
X294Y4820D01*
X318Y4838D01*
X336Y4862D01*
X348Y4890D01*
X352Y4920D01*
X348Y4950D01*
X336Y4978D01*
X318Y5002D01*
X294Y5020D01*
X266Y5032D01*
X236Y5036D01*
D02*
G37*
G36*
X351Y4781D02*
X121D01*
Y4551D01*
X351D01*
Y4781D01*
D02*
G37*
G36*
X500Y4106D02*
X470Y4102D01*
X442Y4090D01*
X418Y4072D01*
X400Y4048D01*
X388Y4020D01*
X384Y3990D01*
X388Y3960D01*
X400Y3932D01*
X418Y3908D01*
X442Y3890D01*
X470Y3878D01*
X500Y3874D01*
X530Y3878D01*
X558Y3890D01*
X582Y3908D01*
X600Y3932D01*
X612Y3960D01*
X616Y3990D01*
X612Y4020D01*
X600Y4048D01*
X582Y4072D01*
X558Y4090D01*
X530Y4102D01*
X500Y4106D01*
D02*
G37*
G36*
X246D02*
X216Y4102D01*
X188Y4090D01*
X164Y4072D01*
X146Y4048D01*
X134Y4020D01*
X130Y3990D01*
X134Y3960D01*
X146Y3932D01*
X164Y3908D01*
X188Y3890D01*
X216Y3878D01*
X246Y3874D01*
X276Y3878D01*
X304Y3890D01*
X328Y3908D01*
X346Y3932D01*
X358Y3960D01*
X362Y3990D01*
X358Y4020D01*
X346Y4048D01*
X328Y4072D01*
X304Y4090D01*
X276Y4102D01*
X246Y4106D01*
D02*
G37*
G36*
X361Y3851D02*
X131D01*
Y3621D01*
X361D01*
Y3851D01*
D02*
G37*
G36*
X754Y3852D02*
X724Y3848D01*
X696Y3836D01*
X672Y3818D01*
X654Y3794D01*
X642Y3766D01*
X638Y3736D01*
X642Y3706D01*
X654Y3678D01*
X672Y3654D01*
X696Y3636D01*
X724Y3624D01*
X754Y3620D01*
X784Y3624D01*
X812Y3636D01*
X836Y3654D01*
X854Y3678D01*
X866Y3706D01*
X870Y3736D01*
X866Y3766D01*
X854Y3794D01*
X836Y3818D01*
X812Y3836D01*
X784Y3848D01*
X754Y3852D01*
D02*
G37*
G36*
X500D02*
X470Y3848D01*
X442Y3836D01*
X418Y3818D01*
X400Y3794D01*
X388Y3766D01*
X384Y3736D01*
X388Y3706D01*
X400Y3678D01*
X418Y3654D01*
X442Y3636D01*
X470Y3624D01*
X500Y3620D01*
X530Y3624D01*
X558Y3636D01*
X582Y3654D01*
X600Y3678D01*
X612Y3706D01*
X616Y3736D01*
X612Y3766D01*
X600Y3794D01*
X582Y3818D01*
X558Y3836D01*
X530Y3848D01*
X500Y3852D01*
D02*
G37*
G36*
X662Y3502D02*
X432D01*
Y3272D01*
X662D01*
Y3502D01*
D02*
G37*
G36*
X547Y3249D02*
X517Y3245D01*
X489Y3233D01*
X469Y3218D01*
X465Y3215D01*
X447Y3191D01*
X435Y3163D01*
X431Y3133D01*
X435Y3103D01*
X447Y3075D01*
X465Y3051D01*
X489Y3033D01*
X517Y3021D01*
X547Y3017D01*
X577Y3021D01*
X605Y3033D01*
X629Y3051D01*
X647Y3075D01*
X659Y3103D01*
X663Y3133D01*
Y3133D01*
D01*
X659Y3163D01*
X647Y3191D01*
X629Y3215D01*
X626Y3217D01*
X625Y3218D01*
X605Y3233D01*
X577Y3245D01*
X547Y3249D01*
D02*
G37*
G36*
X186Y1681D02*
X167Y1677D01*
X150Y1666D01*
X139Y1650D01*
X135Y1630D01*
X139Y1610D01*
X149Y1596D01*
Y1330D01*
X153Y1310D01*
X164Y1294D01*
X180Y1283D01*
X200Y1279D01*
X220Y1283D01*
X236Y1294D01*
X247Y1310D01*
X251Y1330D01*
Y1616D01*
X247Y1636D01*
X236Y1652D01*
X222Y1666D01*
X206Y1677D01*
X186Y1681D01*
D02*
G37*
G36*
X6070Y2741D02*
X6037Y2737D01*
X6007Y2724D01*
X5981Y2704D01*
X5961Y2678D01*
X5948Y2648D01*
X5944Y2615D01*
Y2605D01*
X5948Y2572D01*
X5961Y2542D01*
X5981Y2516D01*
X6007Y2496D01*
X6037Y2483D01*
X6070Y2479D01*
X6103Y2483D01*
X6133Y2496D01*
X6159Y2516D01*
X6179Y2542D01*
X6192Y2572D01*
X6196Y2605D01*
Y2615D01*
X6192Y2648D01*
X6179Y2678D01*
X6159Y2704D01*
X6133Y2724D01*
X6103Y2737D01*
X6070Y2741D01*
D02*
G37*
G36*
X6206Y2162D02*
X5986D01*
Y1902D01*
X6206D01*
Y2162D01*
D02*
G37*
G36*
X5334Y2163D02*
X5305Y2159D01*
X5279Y2148D01*
X5256Y2130D01*
X5238Y2107D01*
X5227Y2081D01*
X5223Y2052D01*
Y2012D01*
X5227Y1983D01*
X5238Y1957D01*
X5256Y1934D01*
X5279Y1916D01*
X5305Y1905D01*
X5334Y1901D01*
X5363Y1905D01*
X5389Y1916D01*
X5412Y1934D01*
X5430Y1957D01*
X5441Y1983D01*
X5445Y2012D01*
Y2052D01*
X5441Y2081D01*
X5430Y2107D01*
X5412Y2130D01*
X5389Y2148D01*
X5363Y2159D01*
X5334Y2163D01*
D02*
G37*
G36*
X5080D02*
X5051Y2159D01*
X5025Y2148D01*
X5002Y2130D01*
X4984Y2107D01*
X4973Y2081D01*
X4969Y2052D01*
Y2012D01*
X4973Y1983D01*
X4984Y1957D01*
X5002Y1934D01*
X5025Y1916D01*
X5051Y1905D01*
X5080Y1901D01*
X5109Y1905D01*
X5135Y1916D01*
X5158Y1934D01*
X5176Y1957D01*
X5187Y1983D01*
X5191Y2012D01*
Y2052D01*
X5187Y2081D01*
X5176Y2107D01*
X5158Y2130D01*
X5135Y2148D01*
X5109Y2159D01*
X5080Y2163D01*
D02*
G37*
G36*
X4826D02*
X4797Y2159D01*
X4771Y2148D01*
X4748Y2130D01*
X4730Y2107D01*
X4719Y2081D01*
X4715Y2052D01*
Y2012D01*
X4719Y1983D01*
X4730Y1957D01*
X4748Y1934D01*
X4771Y1916D01*
X4797Y1905D01*
X4826Y1901D01*
X4855Y1905D01*
X4881Y1916D01*
X4904Y1934D01*
X4922Y1957D01*
X4933Y1983D01*
X4937Y2012D01*
Y2052D01*
X4933Y2081D01*
X4922Y2107D01*
X4904Y2130D01*
X4881Y2148D01*
X4855Y2159D01*
X4826Y2163D01*
D02*
G37*
G36*
X4572D02*
X4543Y2159D01*
X4517Y2148D01*
X4494Y2130D01*
X4476Y2107D01*
X4465Y2081D01*
X4461Y2052D01*
Y2012D01*
X4465Y1983D01*
X4476Y1957D01*
X4494Y1934D01*
X4517Y1916D01*
X4543Y1905D01*
X4572Y1901D01*
X4601Y1905D01*
X4627Y1916D01*
X4650Y1934D01*
X4668Y1957D01*
X4679Y1983D01*
X4683Y2012D01*
Y2052D01*
X4679Y2081D01*
X4668Y2107D01*
X4650Y2130D01*
X4627Y2148D01*
X4601Y2159D01*
X4572Y2163D01*
D02*
G37*
G36*
X4064D02*
X4035Y2159D01*
X4009Y2148D01*
X3986Y2130D01*
X3968Y2107D01*
X3957Y2081D01*
X3953Y2052D01*
Y2012D01*
X3957Y1983D01*
X3968Y1957D01*
X3986Y1934D01*
X4009Y1916D01*
X4035Y1905D01*
X4064Y1901D01*
X4093Y1905D01*
X4119Y1916D01*
X4142Y1934D01*
X4160Y1957D01*
X4171Y1983D01*
X4175Y2012D01*
Y2052D01*
X4171Y2081D01*
X4160Y2107D01*
X4142Y2130D01*
X4119Y2148D01*
X4093Y2159D01*
X4064Y2163D01*
D02*
G37*
G36*
X3810D02*
X3781Y2159D01*
X3755Y2148D01*
X3732Y2130D01*
X3714Y2107D01*
X3703Y2081D01*
X3699Y2052D01*
Y2012D01*
X3703Y1983D01*
X3714Y1957D01*
X3732Y1934D01*
X3755Y1916D01*
X3781Y1905D01*
X3810Y1901D01*
X3839Y1905D01*
X3865Y1916D01*
X3888Y1934D01*
X3906Y1957D01*
X3917Y1983D01*
X3921Y2012D01*
Y2052D01*
X3917Y2081D01*
X3906Y2107D01*
X3888Y2130D01*
X3865Y2148D01*
X3839Y2159D01*
X3810Y2163D01*
D02*
G37*
G36*
X3556D02*
X3527Y2159D01*
X3501Y2148D01*
X3478Y2130D01*
X3460Y2107D01*
X3449Y2081D01*
X3445Y2052D01*
Y2012D01*
X3449Y1983D01*
X3460Y1957D01*
X3478Y1934D01*
X3501Y1916D01*
X3527Y1905D01*
X3556Y1901D01*
X3585Y1905D01*
X3611Y1916D01*
X3634Y1934D01*
X3652Y1957D01*
X3663Y1983D01*
X3667Y2012D01*
Y2052D01*
X3663Y2081D01*
X3652Y2107D01*
X3634Y2130D01*
X3611Y2148D01*
X3585Y2159D01*
X3556Y2163D01*
D02*
G37*
G36*
X3302D02*
X3273Y2159D01*
X3247Y2148D01*
X3224Y2130D01*
X3206Y2107D01*
X3195Y2081D01*
X3191Y2052D01*
Y2012D01*
X3195Y1983D01*
X3206Y1957D01*
X3224Y1934D01*
X3247Y1916D01*
X3273Y1905D01*
X3302Y1901D01*
X3331Y1905D01*
X3357Y1916D01*
X3380Y1934D01*
X3398Y1957D01*
X3409Y1983D01*
X3413Y2012D01*
Y2052D01*
X3409Y2081D01*
X3398Y2107D01*
X3380Y2130D01*
X3357Y2148D01*
X3331Y2159D01*
X3302Y2163D01*
D02*
G37*
G36*
X3048D02*
X3019Y2159D01*
X2993Y2148D01*
X2970Y2130D01*
X2952Y2107D01*
X2941Y2081D01*
X2937Y2052D01*
Y2012D01*
X2941Y1983D01*
X2952Y1957D01*
X2970Y1934D01*
X2993Y1916D01*
X3019Y1905D01*
X3048Y1901D01*
X3077Y1905D01*
X3103Y1916D01*
X3126Y1934D01*
X3144Y1957D01*
X3155Y1983D01*
X3159Y2012D01*
Y2052D01*
X3155Y2081D01*
X3144Y2107D01*
X3126Y2130D01*
X3103Y2148D01*
X3077Y2159D01*
X3048Y2163D01*
D02*
G37*
%LPD*%
D10*
X2340Y4730D02*
X5760D01*
X6045Y4445D01*
X4349Y639D02*
Y942D01*
X4340Y630D02*
X4349Y639D01*
X5727Y2310D02*
Y3637D01*
X5975Y4299D02*
X6045Y4369D01*
X5727Y3637D02*
X5970Y3880D01*
Y4114D01*
X5975Y4119D01*
Y4299D01*
X6045Y4369D02*
Y4445D01*
D77*
X3710Y690D02*
X3720Y700D01*
X2870Y690D02*
X3710D01*
X6420Y940D02*
X6610Y750D01*
X6420Y940D02*
Y1310D01*
X880Y1437D02*
X1107D01*
X4320Y1650D02*
X4540Y1430D01*
X4320Y1650D02*
Y1800D01*
X2140Y1210D02*
X2250D01*
X2030Y1100D02*
X2140Y1210D01*
X1760Y1370D02*
X2030Y1100D01*
Y780D02*
Y1100D01*
X2060Y2110D02*
X2330Y2380D01*
X2060Y2110D02*
X2130Y2180D01*
X2040Y2090D02*
X2060Y2110D01*
X2040Y2047D02*
Y2090D01*
X1783Y1790D02*
X2040Y2047D01*
X1600Y1790D02*
X1783D01*
X1460D02*
X1600D01*
X1107Y1437D02*
X1460Y1790D01*
X2450Y1210D02*
X2490Y1250D01*
X2250Y1210D02*
X2450D01*
X1540Y2280D02*
X1650Y2170D01*
X1540Y2280D02*
Y2360D01*
X1770Y4230D02*
X1770Y4230D01*
X2040D01*
X2240Y2470D02*
X2330Y2380D01*
X2240Y2470D02*
Y3400D01*
X2060Y2110D02*
Y2170D01*
X1650D02*
X2060D01*
X744Y4920D02*
X1114Y5290D01*
X2432D01*
X2642Y5080D01*
D78*
X1610Y2068D02*
Y2080D01*
X1602Y2060D02*
X1610Y2068D01*
X1770Y2080D02*
X1770D01*
X1592Y2070D02*
X1602Y2060D01*
X1254Y4666D02*
X1460Y4460D01*
X1620Y4620D02*
X2550D01*
X1460Y4460D02*
X1620Y4620D01*
X1640Y4210D02*
X1650D01*
X1710Y4150D02*
X5900D01*
X1650Y4210D02*
X1710Y4150D01*
X744Y4666D02*
X1254D01*
X2181Y5215D02*
X2249Y5148D01*
X2015Y5215D02*
X2181D01*
X1880Y5080D02*
X2015Y5215D01*
X2313Y4795D02*
X6130D01*
X2250Y4850D02*
X6270D01*
X2298Y4780D02*
X2313Y4795D01*
X6130Y4395D02*
Y4795D01*
X3920Y4500D02*
Y4570D01*
X3880Y4460D02*
X3920Y4500D01*
X1770Y2080D02*
X1780Y2070D01*
X1770Y2080D02*
X1770Y2080D01*
X5727Y1860D02*
Y1863D01*
Y2310D01*
Y1863D02*
X5730Y1860D01*
X6155Y4349D02*
X6270Y4464D01*
X6155Y4323D02*
Y4349D01*
X6130Y4298D02*
X6155Y4323D01*
X6130Y3260D02*
Y4298D01*
X6050Y3269D02*
Y4289D01*
X6105Y4344D01*
Y4370D01*
X6130Y4395D01*
X6270Y4464D02*
Y4850D01*
X2200Y4780D02*
X2298D01*
X2134Y4846D02*
X2200Y4780D01*
X2550Y4620D02*
X2670Y4500D01*
X2948D01*
X3250Y4620D02*
X3660D01*
X4012Y4500D02*
X5750D01*
X3946Y4385D02*
X5955D01*
X3952Y4320D02*
X5810D01*
X2249Y4971D02*
Y5148D01*
X2250Y4850D02*
Y4970D01*
X2134Y4846D02*
Y5080D01*
X2249Y4971D02*
X2250Y4970D01*
X6200Y3110D02*
Y3119D01*
Y3110D02*
X6290Y3020D01*
X6350Y1710D02*
Y3040D01*
X6130Y3260D02*
X6350Y3040D01*
X6190Y3280D02*
X6430Y3040D01*
X6290Y1770D02*
Y3020D01*
X6096Y1456D02*
X6350Y1710D01*
X6430Y2090D02*
Y3040D01*
X6050Y3269D02*
X6200Y3119D01*
X1580Y1990D02*
Y1990D01*
X1310Y2730D02*
X1460Y2880D01*
Y3550D01*
X1290Y3190D02*
Y3670D01*
X2722Y1960D02*
X2794Y2032D01*
X2320Y1960D02*
X2722D01*
X4790Y970D02*
Y1060D01*
X4687Y1163D02*
X4790Y1060D01*
X4687Y1163D02*
Y1583D01*
X4680Y1590D02*
X4687Y1583D01*
X1770Y2080D02*
X1960D01*
X1560Y2010D02*
X1580Y1990D01*
X1140Y1950D02*
Y1990D01*
X1160Y2010D01*
X1560D01*
X1538Y2070D02*
X1592D01*
X1528Y2060D02*
X1538Y2070D01*
X1140Y2060D02*
X1528D01*
X1090Y2110D02*
X1140Y2060D01*
X2948Y4500D02*
X3053Y4395D01*
X3886D01*
X3926Y4435D01*
X3947D01*
X4012Y4500D01*
X5955Y4385D02*
X5970Y4400D01*
X3906Y4345D02*
X3946Y4385D01*
X3032Y4345D02*
X3906D01*
X3927Y4295D02*
X3952Y4320D01*
X3012Y4295D02*
X3927D01*
X2987Y4320D02*
X3012Y4295D01*
X2780Y4320D02*
X2987D01*
X2982Y4395D02*
X3032Y4345D01*
X2695Y4395D02*
X2982D01*
X3240Y4610D02*
X3250Y4620D01*
X6270Y4370D02*
X6340Y4440D01*
X6270Y3920D02*
Y4370D01*
X2695Y4395D02*
X2700Y4400D01*
X3080Y4460D02*
X3880D01*
X5842Y1448D02*
X5854Y1460D01*
X5980D01*
X5842Y1270D02*
Y1448D01*
X5980Y1460D02*
X6290Y1770D01*
X6430Y2090D02*
X6530Y1990D01*
Y1780D02*
Y1990D01*
X1880Y5080D02*
X1890Y5070D01*
X6190Y3840D02*
X6270Y3920D01*
X6190Y3280D02*
Y3840D01*
X6096Y1270D02*
Y1456D01*
D79*
X3720Y690D02*
X3860D01*
X4510Y1270D02*
X4570D01*
X4100Y860D02*
X4510Y1270D01*
X3940Y860D02*
X4100D01*
X3840Y710D02*
X3860Y690D01*
X3840Y710D02*
Y770D01*
X1680Y4320D02*
X1770Y4230D01*
X1536Y4320D02*
X1680D01*
X1530Y4326D02*
X1536Y4320D01*
X1090Y4326D02*
X1530D01*
X754Y3990D02*
X1090Y4326D01*
X3840Y770D02*
X3850D01*
X3940Y860D01*
X186Y1630D02*
X200Y1616D01*
Y1330D02*
Y1616D01*
D80*
X2030Y780D02*
D03*
Y130D02*
D03*
X2480D02*
D03*
D81*
Y780D02*
D03*
D82*
X6720Y3060D02*
D03*
X6070D02*
D03*
Y2610D02*
D03*
D83*
X6720D02*
D03*
D84*
X1880Y5080D02*
D03*
X2134D02*
D03*
X2388D02*
D03*
X2642D02*
D03*
X2896D02*
D03*
X3150D02*
D03*
X3404D02*
D03*
X3658D02*
D03*
X3912D02*
D03*
X6096D02*
D03*
X5842D02*
D03*
X5588D02*
D03*
X5334D02*
D03*
X5080D02*
D03*
X4826D02*
D03*
X4572D02*
D03*
X5334Y254D02*
D03*
X5588D02*
D03*
X5842D02*
D03*
X6096D02*
D03*
X6350D02*
D03*
X5842Y2032D02*
D03*
X5588D02*
D03*
X5334D02*
D03*
X5080D02*
D03*
X4826D02*
D03*
X4572D02*
D03*
X4318D02*
D03*
X4064D02*
D03*
X3810D02*
D03*
X3556D02*
D03*
X3302D02*
D03*
X3048D02*
D03*
X2794D02*
D03*
X6096Y1270D02*
D03*
X5842D02*
D03*
X5588D02*
D03*
X5334D02*
D03*
X5080D02*
D03*
X4826D02*
D03*
X4572D02*
D03*
X4318D02*
D03*
X4064D02*
D03*
X3810D02*
D03*
X3556D02*
D03*
X3302D02*
D03*
X3048D02*
D03*
X2794D02*
D03*
X1670Y880D02*
D03*
X1416D02*
D03*
X3048Y254D02*
D03*
X3302D02*
D03*
X3556D02*
D03*
X3810D02*
D03*
X4064D02*
D03*
X4318D02*
D03*
X4572D02*
D03*
D85*
X4166Y5080D02*
D03*
X6350D02*
D03*
X5080Y254D02*
D03*
X6096Y2032D02*
D03*
X1162Y880D02*
D03*
X2794Y254D02*
D03*
D86*
X744Y4666D02*
D03*
Y4920D02*
D03*
X490D02*
D03*
X236D02*
D03*
X490Y4666D02*
D03*
X754Y3736D02*
D03*
Y3990D02*
D03*
X500D02*
D03*
X246D02*
D03*
X500Y3736D02*
D03*
X293Y3387D02*
D03*
X547Y3133D02*
D03*
X293D02*
D03*
D87*
X236Y4666D02*
D03*
X246Y3736D02*
D03*
X547Y3387D02*
D03*
D88*
X1460Y4460D02*
D03*
X6620Y4690D02*
D03*
D89*
X1460Y4206D02*
D03*
Y3952D02*
D03*
Y3698D02*
D03*
X6620Y4182D02*
D03*
Y4436D02*
D03*
D90*
X1524Y5080D02*
D03*
D91*
X6604Y3556D02*
D03*
Y762D02*
D03*
X1397Y254D02*
D03*
D92*
X200Y1330D02*
D03*
X210Y220D02*
D03*
D93*
X186Y1630D02*
D03*
Y2290D02*
D03*
D94*
X880Y1440D02*
D03*
X1410Y1370D02*
D03*
X2870Y690D02*
D03*
X1600Y1790D02*
D03*
X1610Y2080D02*
D03*
X1770D02*
D03*
X1640Y4210D02*
D03*
X1770Y4230D02*
D03*
X2340Y4730D02*
D03*
X2040Y4230D02*
D03*
X3920Y4570D02*
D03*
X560Y2165D02*
D03*
X2650Y970D02*
D03*
X4540Y1430D02*
D03*
X4320Y1800D02*
D03*
X4100Y2490D02*
D03*
X3720Y690D02*
D03*
X560Y2090D02*
D03*
X70Y3070D02*
D03*
X2250Y1210D02*
D03*
X350Y4230D02*
D03*
X570Y5200D02*
D03*
X2240Y3400D02*
D03*
X2330Y2380D02*
D03*
X2060Y2110D02*
D03*
X1650Y2170D02*
D03*
X1540Y2360D02*
D03*
X6730Y1720D02*
D03*
X6420Y1310D02*
D03*
X3840Y770D02*
D03*
X3940Y860D02*
D03*
X3860Y690D02*
D03*
X100Y3780D02*
D03*
X290Y2990D02*
D03*
X620Y2890D02*
D03*
X2490Y1250D02*
D03*
X1760Y1370D02*
D03*
X1580Y1990D02*
D03*
X1310Y2730D02*
D03*
X1460Y3550D02*
D03*
X1290Y3190D02*
D03*
Y3670D02*
D03*
X2320Y1960D02*
D03*
X2130Y1630D02*
D03*
X440Y2500D02*
D03*
X4920Y890D02*
D03*
X6160Y1070D02*
D03*
X4349Y942D02*
D03*
X4340Y630D02*
D03*
X4790Y970D02*
D03*
X4680Y1590D02*
D03*
X1960Y2080D02*
D03*
X1140Y1920D02*
D03*
X850Y1040D02*
D03*
Y1170D02*
D03*
X1090Y2110D02*
D03*
X5750Y4500D02*
D03*
X6340Y4440D02*
D03*
X5900Y4150D02*
D03*
X5810Y4320D02*
D03*
X5970Y4400D02*
D03*
X5730Y1860D02*
D03*
X2780Y4320D02*
D03*
X2700Y4400D02*
D03*
X6530Y1780D02*
D03*
X3660Y4620D02*
D03*
X3240Y4610D02*
D03*
X3080Y4460D02*
D03*
M02*
