Added Pin To Net: NetName=+5V/3V3 16U2 Pin=c3-1
Added Pin To Net: NetName=+3V3_16U2_UCAP Pin=C7-1
Added Pin To Net: NetName=+5V Pin=c12-1
Added Pin To Net: NetName=+3V3 Pin=c13-1
Added Pin To Net: NetName=+5V/3V3_328P_VCC Pin=c19-1
Added Pin To Net: NetName=+AREF Pin=c21-1
Added Pin To Net: NetName=+5V/3V3_328P_AVCC Pin=c23-1
Added Pin To Net: NetName=+5V/3V3 Pin=C34-1
Change Net Name : Old Net Name=+5V/3V3 16U2 New Net Name=+5V/3V3_16U2
