Change Component Comment: Designator=J4 Old Comment=M20-7821046 New Comment=HDR FML 1X10 2.54MM
Change Net Color : Net Name= +3V3 Old Net Color=Default New Net Color=RGB(219, 51, 129)
Change Net Color : Net Name= +5V/3V3 Old Net Color=Default New Net Color=RGB(200, 235, 235)
Change Net Color : Net Name= +5V Old Net Color=Default New Net Color=RGB(255, 156, 0)
Change Net Color : Net Name= GND Old Net Color=Default New Net Color=Blue
