Added Pin To Net: NetName=GND Pin=c3-1
Added Pin To Net: NetName=GND Pin=C7-1
Added Pin To Net: NetName=GND Pin=c12-1
Added Pin To Net: NetName=GND Pin=c13-1
Added Pin To Net: NetName=GND Pin=c19-1
Added Pin To Net: NetName=GND Pin=c21-1
Added Pin To Net: NetName=GND Pin=c23-1
Added Pin To Net: NetName=GND Pin=C34-1
Added Pin To Net: NetName=16U2PROG_328P_RESETn Pin=R1-1
Added Pin To Net: NetName=+5V/3V3 Pin=R1-2
Added Pin To Net: NetName=NetD3_2 Pin=R2-1
Added Pin To Net: NetName=+5V/3V3 Pin=R2-2
Added Pin To Net: NetName=+5V/3V3 Pin=R3-1
Added Pin To Net: NetName=NetD4_2 Pin=R3-2
Added Pin To Net: NetName=16U2_16MHZ_XTAL1 Pin=R9-1
Added Pin To Net: NetName=16U2_16MHZ_XTAL2 Pin=R9-2
Added Pin To Net: NetName=+5V/3V3 Pin=R15-1
Added Pin To Net: NetName=NetD2_2 Pin=R15-2
Added Pin To Net: NetName=328P_16MHZ_XTAL2 Pin=R16-1
Added Pin To Net: NetName=328P_16MHZ_XTAL1 Pin=R16-2
Added Pin To Net: NetName=+5V/3V3 Pin=R17-1
Added Pin To Net: NetName=NetD1_2 Pin=R17-2
Added Pin To Net: NetName=IO8 Pin=R22-2
Added Pin To Net: NetName=NetR22_1 Pin=R22-1
Added Pin To Net: NetName=NetR22_1 Pin=u7-4
Added Net: Name=NetR22_1
