Removed Pin From Net: NetName=+5V/3V3 16U2 Pin=c3-2
Removed Pin From Net: NetName=+3V3_16U2_UCAP Pin=C7-2
Removed Pin From Net: NetName=+5V Pin=c12-2
Removed Pin From Net: NetName=+3V3 Pin=c13-2
Removed Pin From Net: NetName=+5V/3V3_328P_VCC Pin=c19-2
Removed Pin From Net: NetName=+AREF Pin=c21-2
Removed Pin From Net: NetName=+5V/3V3_328P_AVCC Pin=c23-2
Removed Pin From Net: NetName=+5V/3V3 Pin=C34-2
Removed Pin From Net: NetName=+5V/3V3 Pin=FB1-2
Removed Pin From Net: NetName=+5V/3V3_328P_VCC Pin=FB2-2
Removed Pin From Net: NetName=+5V/3V3_328P_AVCC Pin=FB3-2
Removed Pin From Net: NetName=GND Pin=MH1-1
Removed Pin From Net: NetName=GND Pin=MH2-1
Removed Pin From Net: NetName=GND Pin=MH3-1
Removed Pin From Net: NetName=16U2PROG_328P_RESETn Pin=R1-1
Removed Pin From Net: NetName=+5V/3V3 Pin=R1-2
Removed Pin From Net: NetName=NetD3_2 Pin=R2-1
Removed Pin From Net: NetName=+5V/3V3 Pin=R2-2
Removed Pin From Net: NetName=+5V/3V3 Pin=R3-1
Removed Pin From Net: NetName=NetD4_2 Pin=R3-2
Removed Pin From Net: NetName=16U2_RESETn Pin=R4-1
Removed Pin From Net: NetName=+5V/3V3 Pin=R4-2
Removed Pin From Net: NetName=16U2_SCLK_R Pin=R5-1
Removed Pin From Net: NetName=16U2_SCLK Pin=R5-2
Removed Pin From Net: NetName=CON_USB_N Pin=R6-1
Removed Pin From Net: NetName=USB_N Pin=R6-2
Removed Pin From Net: NetName=CON_USB_P Pin=R7-1
Removed Pin From Net: NetName=USB_P Pin=R7-2
Removed Pin From Net: NetName=NetJ7_4 Pin=R8-1
Removed Pin From Net: NetName=GND Pin=R8-2
Removed Pin From Net: NetName=16U2_16MHZ_XTAL1 Pin=R9-1
Removed Pin From Net: NetName=16U2_16MHZ_XTAL2 Pin=R9-2
Removed Pin From Net: NetName=16U2_TXD Pin=R10-1
Removed Pin From Net: NetName=IO0 Pin=R10-2
Removed Pin From Net: NetName=16U2_RXD Pin=R11-1
Removed Pin From Net: NetName=IO1 Pin=R11-2
Removed Pin From Net: NetName=GND Pin=R12-1
Removed Pin From Net: NetName=NetJP1_3 Pin=R12-2
Removed Pin From Net: NetName=SCK Pin=R13-1
Removed Pin From Net: NetName=SCK_R Pin=R13-2
Removed Pin From Net: NetName=328P_RESETn Pin=R14-1
Removed Pin From Net: NetName=+5V/3V3 Pin=R14-2
Removed Pin From Net: NetName=+5V/3V3 Pin=R15-1
Removed Pin From Net: NetName=NetD2_2 Pin=R15-2
Removed Pin From Net: NetName=328P_16MHZ_XTAL2 Pin=R16-1
Removed Pin From Net: NetName=328P_16MHZ_XTAL1 Pin=R16-2
Removed Pin From Net: NetName=+5V/3V3 Pin=R17-1
Removed Pin From Net: NetName=NetD1_2 Pin=R17-2
Removed Pin From Net: NetName=328P_AUTORESETn Pin=R18-1
Removed Pin From Net: NetName=+5V/3V3 Pin=R18-2
Removed Pin From Net: NetName=NetD5_2 Pin=R19-1
Removed Pin From Net: NetName=+5V/3V3 Pin=R19-2
Removed Pin From Net: NetName=BUTTON_RESETn Pin=R20-1
Removed Pin From Net: NetName=+5V/3V3 Pin=R20-2
Removed Pin From Net: NetName=USER_BUTTON Pin=R21-1
Removed Pin From Net: NetName=+5V/3V3 Pin=R21-2
Removed Pin From Net: NetName=NetD5_2 Pin=R23-1
Removed Pin From Net: NetName=16U2_BUF_RESETn Pin=R23-2
Removed Pin From Net: NetName=BUTTON_RESETn Pin=R24-1
Removed Pin From Net: NetName=328P_BUF_RESETn Pin=R24-2
Removed Pin From Net: NetName=USER_BUTTON Pin=R25-1
Removed Pin From Net: NetName=USER_BUTTON_BUF Pin=R25-2
Removed Pin From Net: NetName=+3V3_16U2_UCAP Pin=R26-1
Removed Pin From Net: NetName=+5V/3V3 16U2 Pin=R26-2
Removed Pin From Net: NetName=+5V Pin=R27-1
Removed Pin From Net: NetName=+5V/3V3 Pin=R27-2
Removed Pin From Net: NetName=+5V/3V3 Pin=R28-1
Removed Pin From Net: NetName=+3V3 Pin=R28-2
Removed Pin From Net: NetName=328P_16MHZ_XTAL2 Pin=Y1-1
Removed Pin From Net: NetName=328P_16MHZ_XTAL1 Pin=Y1-2
Removed Pin From Net: NetName=16U2_16MHZ_XTAL1 Pin=Y2-1
Removed Pin From Net: NetName=16U2_16MHZ_XTAL2 Pin=Y2-2
Added Pin To Net: NetName=+5V/3V3 16U2 Pin=c3-1
Added Pin To Net: NetName=+3V3_16U2_UCAP Pin=C7-1
Added Pin To Net: NetName=16U2_16MHZ_XTAL1 Pin=c10-1
Added Pin To Net: NetName=+5V Pin=c12-1
Added Pin To Net: NetName=+3V3 Pin=c13-1
Added Pin To Net: NetName=+5V/3V3_328P_VCC Pin=c19-1
Added Pin To Net: NetName=+AREF Pin=c21-1
Added Pin To Net: NetName=+5V/3V3_328P_AVCC Pin=c23-1
Added Pin To Net: NetName=328P_16MHZ_XTAL2 Pin=c27-1
Added Pin To Net: NetName=+5V/3V3 Pin=C34-1
Added Pin To Net: NetName=GND Pin=J7-5
